<svg width="64" height="64" viewBox="0 0 64 64" fill="none" xmlns="http://www.w3.org/2000/svg">
<circle cx="32" cy="32" r="32" fill="#B69876"/>
<path d="M18.2929 32.2929C17.9024 32.6834 17.9024 33.3166 18.2929 33.7071L24.6569 40.0711C25.0474 40.4616 25.6806 40.4616 26.0711 40.0711C26.4616 39.6805 26.4616 39.0474 26.0711 38.6569L20.4142 33L26.0711 27.3431C26.4616 26.9526 26.4616 26.3195 26.0711 25.9289C25.6806 25.5384 25.0474 25.5384 24.6569 25.9289L18.2929 32.2929ZM45.01 32L19 32V34L45.01 34V32Z" fill="white"/>
</svg>
