<svg width="20" height="20" viewBox="0 0 20 20" fill="none" xmlns="http://www.w3.org/2000/svg">
<rect width="20" height="20" rx="10" fill="#B69876"/>
<path d="M7.31443 8.01402H9.75597C10.093 8.01402 10.3662 7.7168 10.3662 7.35658C10.3662 6.99636 10.093 6.69928 9.75597 6.69928H7.31443C6.97745 6.69928 6.70398 6.99638 6.70398 7.35658C6.70396 7.71677 6.97743 8.01402 7.31443 8.01402Z" fill="white"/>
<path d="M7.31443 10.8812H12.4412C12.7785 10.8812 13.0517 10.584 13.0517 10.2238C13.0517 9.86354 12.7785 9.56647 12.4412 9.56647H7.31443C6.97745 9.56647 6.70398 9.86357 6.70398 10.2238C6.70396 10.584 6.97743 10.8812 7.31443 10.8812Z" fill="white"/>
<path d="M12.6855 12.1818H7.31443C6.97745 12.1818 6.70398 12.472 6.70398 12.8322C6.70398 13.1924 6.97745 13.4827 7.31443 13.4827H12.6855C13.0225 13.4827 13.2959 13.1924 13.2959 12.8322C13.2959 12.472 13.0225 12.1818 12.6855 12.1818Z" fill="white"/>
<path d="M12.5553 4H6.36486C5.60948 4 5 4.65423 5 5.46111V14.5342C5 15.3413 5.60948 16 6.36486 16H13.6352C14.3905 16 15 15.3412 15 14.5342V6.67639L12.5553 4ZM13.6352 14.9511H6.36486C6.14817 14.9511 5.96842 14.7659 5.96842 14.5342V5.46111C5.96842 5.22946 6.14817 5.03479 6.36486 5.03479H12.0811V6.20929C12.0811 6.72566 12.4727 7.14578 12.9558 7.15106L14.0316 7.16281V14.5342C14.0316 14.7659 13.8519 14.9511 13.6352 14.9511Z" fill="white"/>
</svg>
