[07-Sep-2020 09:48:04 Europe/Moscow] Uncaught exception: 'ErrorException' with message 'Attempt to assign property 'type' of non-object'
Stack trace: #0 /Volumes/Bsc/SRV/tobaco/App/Controllers/Login.php(96): Core\Error::errorHandler(2, 'Attempt to assi...', '/Volumes/Bsc/SR...', 96, Array)
#1 [internal function]: App\Controllers\Login->checkAction()
#2 /Volumes/Bsc/SRV/tobaco/Core/Controller.php(48): call_user_func_array(Array, Array)
#3 /Volumes/Bsc/SRV/tobaco/Core/Router.php(121): Core\Controller->__call('check', Array)
#4 /Volumes/Bsc/SRV/tobaco/public/index.php(61): Core\Router->dispatch('login/check')
#5 {main}
Thrown in '/Volumes/Bsc/SRV/tobaco/App/Controllers/Login.php' on line 96
[07-Sep-2020 09:49:10 Europe/Moscow] Uncaught exception: 'ErrorException' with message 'Attempt to assign property 'type' of non-object'
Stack trace: #0 /Volumes/Bsc/SRV/tobaco/App/Controllers/Login.php(96): Core\Error::errorHandler(2, 'Attempt to assi...', '/Volumes/Bsc/SR...', 96, Array)
#1 [internal function]: App\Controllers\Login->checkAction()
#2 /Volumes/Bsc/SRV/tobaco/Core/Controller.php(48): call_user_func_array(Array, Array)
#3 /Volumes/Bsc/SRV/tobaco/Core/Router.php(121): Core\Controller->__call('check', Array)
#4 /Volumes/Bsc/SRV/tobaco/public/index.php(61): Core\Router->dispatch('login/check')
#5 {main}
Thrown in '/Volumes/Bsc/SRV/tobaco/App/Controllers/Login.php' on line 96
[07-Sep-2020 10:15:54 Europe/Moscow] Uncaught exception: 'Exception' with message 'No route matched.'
Stack trace: #0 /Volumes/Bsc/SRV/tobaco/public/index.php(61): Core\Router->dispatch('favicon.ico')
#1 {main}
Thrown in '/Volumes/Bsc/SRV/tobaco/Core/Router.php' on line 130
[07-Sep-2020 10:19:21 Europe/Moscow] Uncaught exception: 'Exception' with message 'No route matched.'
Stack trace: #0 /Volumes/Bsc/SRV/tobaco/public/index.php(61): Core\Router->dispatch('favicon.ico')
#1 {main}
Thrown in '/Volumes/Bsc/SRV/tobaco/Core/Router.php' on line 130
[07-Sep-2020 10:20:49 Europe/Moscow] Uncaught exception: 'Exception' with message 'No route matched.'
Stack trace: #0 /Volumes/Bsc/SRV/tobaco/public/index.php(61): Core\Router->dispatch('favicon.ico')
#1 {main}
Thrown in '/Volumes/Bsc/SRV/tobaco/Core/Router.php' on line 130
[07-Sep-2020 10:23:00 Europe/Moscow] Uncaught exception: 'Exception' with message 'No route matched.'
Stack trace: #0 /Volumes/Bsc/SRV/tobaco/public/index.php(61): Core\Router->dispatch('favicon.ico')
#1 {main}
Thrown in '/Volumes/Bsc/SRV/tobaco/Core/Router.php' on line 130
[07-Sep-2020 10:23:32 Europe/Moscow] Uncaught exception: 'Exception' with message 'No route matched.'
Stack trace: #0 /Volumes/Bsc/SRV/tobaco/public/index.php(61): Core\Router->dispatch('favicon.ico')
#1 {main}
Thrown in '/Volumes/Bsc/SRV/tobaco/Core/Router.php' on line 130
[07-Sep-2020 10:23:35 Europe/Moscow] Uncaught exception: 'Exception' with message 'No route matched.'
Stack trace: #0 /Volumes/Bsc/SRV/tobaco/public/index.php(61): Core\Router->dispatch('favicon.ico')
#1 {main}
Thrown in '/Volumes/Bsc/SRV/tobaco/Core/Router.php' on line 130
[07-Sep-2020 10:23:38 Europe/Moscow] Uncaught exception: 'Exception' with message 'No route matched.'
Stack trace: #0 /Volumes/Bsc/SRV/tobaco/public/index.php(61): Core\Router->dispatch('favicon.ico')
#1 {main}
Thrown in '/Volumes/Bsc/SRV/tobaco/Core/Router.php' on line 130
[07-Sep-2020 10:23:38 Europe/Moscow] Uncaught exception: 'Exception' with message 'No route matched.'
Stack trace: #0 /Volumes/Bsc/SRV/tobaco/public/index.php(61): Core\Router->dispatch('favicon.ico')
#1 {main}
Thrown in '/Volumes/Bsc/SRV/tobaco/Core/Router.php' on line 130
[07-Sep-2020 10:26:19 Europe/Moscow] Uncaught exception: 'Exception' with message 'No route matched.'
Stack trace: #0 /Volumes/Bsc/SRV/tobaco/public/index.php(61): Core\Router->dispatch('favicon.ico')
#1 {main}
Thrown in '/Volumes/Bsc/SRV/tobaco/Core/Router.php' on line 130
[07-Sep-2020 10:50:21 Europe/Moscow] Uncaught exception: 'ErrorException' with message 'Undefined index: order'
Stack trace: #0 /Volumes/Bsc/SRV/tobaco/App/Controllers/Login.php(70): Core\Error::errorHandler(8, 'Undefined index...', '/Volumes/Bsc/SR...', 70, Array)
#1 [internal function]: App\Controllers\Login->authAction()
#2 /Volumes/Bsc/SRV/tobaco/Core/Controller.php(48): call_user_func_array(Array, Array)
#3 /Volumes/Bsc/SRV/tobaco/Core/Router.php(121): Core\Controller->__call('auth', Array)
#4 /Volumes/Bsc/SRV/tobaco/public/index.php(61): Core\Router->dispatch('login/auth')
#5 {main}
Thrown in '/Volumes/Bsc/SRV/tobaco/App/Controllers/Login.php' on line 70
